src/modules/datapath_tb.vcd
$date
	Sat Nov 23 16:38:10 2024
$end
$version
	Icarus Verilog
$end
$timescale
	1ps
$end
$scope module datapath_tb $end
$var wire 32 ! writeData [31:0] $end
$var wire 32 " pc [31:0] $end
$var wire 1 # memWrite $end
$var wire 32 $ aluResult [31:0] $end
$var reg 1 % clk $end
$var reg 32 & instr [31:0] $end
$var reg 32 ' readData [31:0] $end
$var reg 1 ( reset $end
$scope module uut $end
$var wire 1 % clk $end
$var wire 32 ) instr [31:0] $end
$var wire 32 * readData [31:0] $end
$var wire 1 ( reset $end
$var wire 32 + writeDataReg [31:0] $end
$var wire 32 , writeData [31:0] $end
$var wire 32 - srcB [31:0] $end
$var wire 32 . srcA [31:0] $end
$var wire 1 / resSrc $end
$var wire 32 0 reg_x9 [31:0] $end
$var wire 32 1 reg_x8 [31:0] $end
$var wire 32 2 reg_x7 [31:0] $end
$var wire 32 3 reg_x6 [31:0] $end
$var wire 32 4 reg_x5 [31:0] $end
$var wire 32 5 reg_x18 [31:0] $end
$var wire 1 6 regWrite $end
$var wire 1 7 pcSrc $end
$var wire 32 8 pcPlus4 [31:0] $end
$var wire 32 9 pcNext [31:0] $end
$var wire 32 : pcBranch [31:0] $end
$var wire 32 ; pc [31:0] $end
$var wire 1 # memWrite $end
$var wire 2 < immSrc [1:0] $end
$var wire 32 = immExt [31:0] $end
$var wire 1 > branch $end
$var wire 1 ? aluSrc $end
$var wire 32 @ aluResult [31:0] $end
$var wire 3 A aluControl [2:0] $end
$scope module alu $end
$var wire 32 B srcB [31:0] $end
$var wire 32 C srcA [31:0] $end
$var wire 3 D ALUControl [2:0] $end
$var reg 32 E result [31:0] $end
$upscope $end
$scope module controlUnit $end
$var wire 3 F func3 [2:0] $end
$var wire 1 G func7 $end
$var wire 7 H op [6:0] $end
$var wire 1 7 pcSrc $end
$var wire 1 I zero $end
$var wire 1 / resSrc $end
$var wire 1 6 regWrite $end
$var wire 1 # memWrite $end
$var wire 2 J immSrc [1:0] $end
$var wire 1 > branch $end
$var wire 1 ? aluSrc $end
$var wire 2 K aluOp [1:0] $end
$var wire 3 L aluControl [2:0] $end
$scope module aluDecoder $end
$var wire 3 M func3 [2:0] $end
$var wire 1 G func7 $end
$var wire 2 N aluOp [1:0] $end
$var reg 3 O aluControl [2:0] $end
$upscope $end
$scope module mainDecoder $end
$var wire 7 P op [6:0] $end
$var reg 2 Q aluOp [1:0] $end
$var reg 1 ? aluSrc $end
$var reg 1 > branch $end
$var reg 2 R immSrc [1:0] $end
$var reg 1 # memWrite $end
$var reg 1 6 regWrite $end
$var reg 1 / resSrc $end
$upscope $end
$upscope $end
$scope module muxALUSrc $end
$var wire 1 ? sel $end
$var wire 32 S salMux [31:0] $end
$var wire 32 T e2 [31:0] $end
$var wire 32 U e1 [31:0] $end
$upscope $end
$scope module muxPCSrc $end
$var wire 32 V e1 [31:0] $end
$var wire 32 W e2 [31:0] $end
$var wire 1 7 sel $end
$var wire 32 X salMux [31:0] $end
$upscope $end
$scope module muxResSrc $end
$var wire 32 Y e1 [31:0] $end
$var wire 32 Z e2 [31:0] $end
$var wire 1 / sel $end
$var wire 32 [ salMux [31:0] $end
$upscope $end
$scope module pcReg $end
$var wire 1 % clk $end
$var wire 32 \ pcNext [31:0] $end
$var wire 1 ( reset $end
$var parameter 32 ] N $end
$var reg 32 ^ pc [31:0] $end
$upscope $end
$scope module regFile $end
$var wire 5 _ a1 [4:0] $end
$var wire 5 ` a2 [4:0] $end
$var wire 5 a a3 [4:0] $end
$var wire 1 % clk $end
$var wire 32 b rd1 [31:0] $end
$var wire 32 c rd2 [31:0] $end
$var wire 32 d reg_x18 [31:0] $end
$var wire 32 e reg_x5 [31:0] $end
$var wire 32 f reg_x6 [31:0] $end
$var wire 32 g reg_x7 [31:0] $end
$var wire 32 h reg_x8 [31:0] $end
$var wire 32 i reg_x9 [31:0] $end
$var wire 32 j wd3 [31:0] $end
$var wire 1 6 we $end
$var parameter 32 k N $end
$var integer 32 l i [31:0] $end
$upscope $end
$scope module signExt $end
$var wire 32 m instr [31:0] $end
$var wire 2 n src [1:0] $end
$var wire 32 o immExt [31:0] $end
$var reg 32 p immaux [31:0] $end
$upscope $end
$upscope $end
$scope task execute_instruction $end
$var reg 160 q instr_name [160:1] $end
$var reg 32 r new_instr [31:0] $end
$upscope $end
$upscope $end
$enddefinitions $end
$comment Show the parameter values. $end
$dumpall
b100000 k
b100000 ]
$end
#0
$dumpvars
bx r
bx q
b0 p
b0 o
b0 n
b0 m
b100000 l
b0 j
b0 i
b0 h
b0 g
b0 f
b0 e
b0 d
b0 c
b0 b
b0 a
b0 `
b0 _
b0 ^
b100 \
b0 [
b0 Z
b0 Y
b100 X
b0 W
b100 V
b0 U
b0 T
b0 S
b0 R
b0 Q
b0 P
b0 O
b0 N
b0 M
b0 L
b0 K
b0 J
1I
b0 H
0G
b0 F
b0 E
b0 D
b0 C
b0 B
b0 A
b0 @
0?
0>
b0 =
b0 <
b0 ;
b0 :
b100 9
b100 8
07
06
b0 5
b0 4
b0 3
b0 2
b0 1
b0 0
0/
b0 .
b0 -
b0 ,
b0 +
b0 *
b0 )
1(
b0 '
b0 &
0%
b0 $
0#
b0 "
b0 !
$end
#5
b1000 9
b1000 X
b1000 \
b100 :
b100 W
b1000 8
b1000 V
b100 "
b100 ;
b100 ^
b110000101100100011001000110100100100000011110000011010100101100001000000111100000110000001011000010000000110001 q
b100000000001010010011 r
0(
1%
#10
0%
#15
b1100 9
b1100 X
b1100 \
b1100 8
b1100 V
b1000 "
b1000 ;
b1000 ^
b1 +
b1 [
b1 j
0I
b1 $
b1 @
b1 E
b1 Y
b1 -
b1 B
b1 S
1?
16
b1 `
b101 a
b10011 H
b10011 P
b1001 :
b1001 W
b1 =
b1 T
b1 o
b1 p
b100000000001010010011 &
b100000000001010010011 )
b100000000001010010011 m
1%
#20
0%
#25
b10000 9
b10000 X
b10000 \
b1101 :
b1101 W
b10000 8
b10000 V
b1100 "
b1100 ;
b1100 ^
b1 4
b1 e
1%
#26
b1100001011001000110010001101001001000000111100000110001001110000010110000100000011110000011000000101100001000000011000100110110 q
b1000000000000100100010011 r
#30
0%
#35
b10100 9
b10100 X
b10100 \
b10100 8
b10100 V
b10000 "
b10000 ;
b10000 ^
b10000 +
b10000 [
b10000 j
b10000 $
b10000 @
b10000 E
b10000 Y
b10000 -
b10000 B
b10000 S
b10000 `
b10010 a
b100000 :
b100000 W
b10000 =
b10000 T
b10000 o
b10000 p
b1000000000000100100010011 &
b1000000000000100100010011 )
b1000000000000100100010011 m
1%
#40
0%
#45
b11000 9
b11000 X
b11000 \
b100100 :
b100100 W
b11000 8
b11000 V
b10100 "
b10100 ;
b10100 ^
b10000 5
b10000 d
1%
#46
b110000101100100011001000110100100100000011110000011011000101100001000000111100000110000001011000010000000110000 q
b1100010011 r
#50
0%
#55
b11100 9
b11100 X
b11100 \
b11100 8
b11100 V
b11000 "
b11000 ;
b11000 ^
b0 +
b0 [
b0 j
1I
b0 $
b0 @
b0 E
b0 Y
b0 -
b0 B
b0 S
b0 `
b110 a
b11000 :
b11000 W
b0 =
b0 T
b0 o
b0 p
b1100010011 &
b1100010011 )
b1100010011 m
1%
#60
0%
#65
b100000 9
b100000 X
b100000 \
b11100 :
b11100 W
b100000 8
b100000 V
b11100 "
b11100 ;
b11100 ^
1%
#66
b110001001100101011100010010000001111000001101010010110000100000011110000011000100111000001011000010000000111000 q
b1001000101000010001100011 r
#70
0%
#75
b100100 9
b100100 X
b100100 \
b100100 8
b100100 V
b100000 "
b100000 ;
b100000 ^
b11111111111111111111111111110001 +
b11111111111111111111111111110001 [
b11111111111111111111111111110001 j
b1 A
b1 D
b1 L
b1 O
0I
b11111111111111111111111111110001 $
b11111111111111111111111111110001 @
b11111111111111111111111111110001 E
b11111111111111111111111111110001 Y
b1 K
b1 N
b1 Q
1>
b10 <
b10 J
b10 R
b10 n
06
0?
b10000 -
b10000 B
b10000 S
b1 .
b1 C
b1 b
b101 _
b10000 !
b10000 ,
b10000 U
b10000 c
b10010 `
b1000 a
b1100011 H
b1100011 P
b101000 :
b101000 W
b1000 =
b1000 T
b1000 o
b1000 p
b1001000101000010001100011 &
b1001000101000010001100011 )
b1001000101000010001100011 m
1%
#80
0%
#85
b101000 9
b101000 X
b101000 \
b101100 :
b101100 W
b101000 8
b101000 V
b100100 "
b100100 ;
b100100 ^
1%
#86
b110000101100100011001000010000001111000001101010010110000100000011110000011010100101100001000000111100000110101 q
b10100101000001010010011 r
#90
0%
#95
b101100 9
b101100 X
b101100 \
b101100 8
b101100 V
b101000 "
b101000 ;
b101000 ^
b110 +
b110 [
b110 j
b110 $
b110 @
b110 E
b110 Y
b0 A
b0 D
b0 L
b0 O
b101 -
b101 B
b101 S
1?
16
b0 K
b0 N
b0 Q
b0 <
b0 J
b0 R
b0 n
0>
b1 !
b1 ,
b1 U
b1 c
b101 `
b101 a
b10011 H
b10011 P
b101101 :
b101101 W
b101 =
b101 T
b101 o
b101 p
b10100101000001010010011 &
b10100101000001010010011 )
b10100101000001010010011 m
1%
#100
0%
#105
b1011 +
b1011 [
b1011 j
b110000 9
b110000 X
b110000 \
b1011 $
b1011 @
b1011 E
b1011 Y
b110001 :
b110001 W
b110000 8
b110000 V
b101100 "
b101100 ;
b101100 ^
b110 .
b110 C
b110 b
b110 !
b110 ,
b110 U
b110 c
b110 4
b110 e
1%
#106
b110000101100100011001000110100100100000011110000011011000101100001000000111100000110110001011000010000000110001 q
b100110000001100010011 r
#110
0%
#115
b110100 9
b110100 X
b110100 \
b110100 8
b110100 V
b110000 "
b110000 ;
b110000 ^
b1011 4
b1011 e
b1 +
b1 [
b1 j
b1 $
b1 @
b1 E
b1 Y
b1 -
b1 B
b1 S
b0 .
b0 C
b0 b
b110 _
b0 !
b0 ,
b0 U
b0 c
b1 `
b110 a
b110001 :
b110001 W
b1 =
b1 T
b1 o
b1 p
b100110000001100010011 &
b100110000001100010011 )
b100110000001100010011 m
1%
#120
0%
#125
b10 +
b10 [
b10 j
b111000 9
b111000 X
b111000 \
b10 $
b10 @
b10 E
b10 Y
b110101 :
b110101 W
b111000 8
b111000 V
b110100 "
b110100 ;
b110100 ^
b1 .
b1 C
b1 b
b1 3
b1 f
1%
#126
b11000100110010101110001001000000111100000110000001011000010000001111000001100000010110000100000001011010011000100110010 q
b11111110000000000000101011100011 r
#130
0%
#135
b111100 8
b111100 V
b111000 "
b111000 ;
b111000 ^
b10 3
b10 f
b101100 9
b101100 X
b101100 \
17
1I
b0 +
b0 [
b0 j
b1 A
b1 D
b1 L
b1 O
b0 $
b0 @
b0 E
b0 Y
b1 K
b1 N
b1 Q
1>
b10 <
b10 J
b10 R
b10 n
06
0?
b0 -
b0 B
b0 S
b0 .
b0 C
b0 b
b0 _
b0 `
b10101 a
b1100011 H
b1100011 P
1G
b101100 :
b101100 W
b11111111111111111111111111110100 =
b11111111111111111111111111110100 T
b11111111111111111111111111110100 o
b11111111111111111111111111110100 p
b11111110000000000000101011100011 &
b11111110000000000000101011100011 )
b11111110000000000000101011100011 m
1%
#140
0%
#145
b100000 9
b100000 X
b100000 \
b100000 :
b100000 W
b110000 8
b110000 V
b101100 "
b101100 ;
b101100 ^
1%
#146
b110001001100101011100010010000001111000001101010010110000100000011110000011000100111000001011000010000000111000 q
b1001000101000010001100011 r
#150
0%
#155
b100100 8
b100100 V
b100000 "
b100000 ;
b100000 ^
b11111111111111111111111111111011 +
b11111111111111111111111111111011 [
b11111111111111111111111111111011 j
07
0I
b11111111111111111111111111111011 $
b11111111111111111111111111111011 @
b11111111111111111111111111111011 E
b11111111111111111111111111111011 Y
b10000 -
b10000 B
b10000 S
b100100 9
b100100 X
b100100 \
b1011 .
b1011 C
b1011 b
b101 _
b10000 !
b10000 ,
b10000 U
b10000 c
b10010 `
b1000 a
0G
b101000 :
b101000 W
b1000 =
b1000 T
b1000 o
b1000 p
b1001000101000010001100011 &
b1001000101000010001100011 )
b1001000101000010001100011 m
1%
#160
0%
#165
b101000 9
b101000 X
b101000 \
b101100 :
b101100 W
b101000 8
b101000 V
b100100 "
b100100 ;
b100100 ^
1%
#166
b110000101100100011001000010000001111000001101010010110000100000011110000011010100101100001000000111100000110101 q
b10100101000001010010011 r
#170
0%
#175
b101100 9
b101100 X
b101100 \
b101100 8
b101100 V
b101000 "
b101000 ;
b101000 ^
b10000 +
b10000 [
b10000 j
b10000 $
b10000 @
b10000 E
b10000 Y
b0 A
b0 D
b0 L
b0 O
b101 -
b101 B
b101 S
1?
16
b0 K
b0 N
b0 Q
b0 <
b0 J
b0 R
b0 n
0>
b1011 !
b1011 ,
b1011 U
b1011 c
b101 `
b101 a
b10011 H
b10011 P
b101101 :
b101101 W
b101 =
b101 T
b101 o
b101 p
b10100101000001010010011 &
b10100101000001010010011 )
b10100101000001010010011 m
1%
#180
0%
#185
b10101 +
b10101 [
b10101 j
b110000 9
b110000 X
b110000 \
b10101 $
b10101 @
b10101 E
b10101 Y
b110001 :
b110001 W
b110000 8
b110000 V
b101100 "
b101100 ;
b101100 ^
b10000 .
b10000 C
b10000 b
b10000 !
b10000 ,
b10000 U
b10000 c
b10000 4
b10000 e
1%
#186
b110000101100100011001000110100100100000011110000011011000101100001000000111100000110110001011000010000000110001 q
b100110000001100010011 r
#190
0%
#195
b110100 9
b110100 X
b110100 \
b110100 8
b110100 V
b110000 "
b110000 ;
b110000 ^
b10101 4
b10101 e
b11 +
b11 [
b11 j
b11 $
b11 @
b11 E
b11 Y
b1 -
b1 B
b1 S
b10 .
b10 C
b10 b
b110 _
b0 !
b0 ,
b0 U
b0 c
b1 `
b110 a
b110001 :
b110001 W
b1 =
b1 T
b1 o
b1 p
b100110000001100010011 &
b100110000001100010011 )
b100110000001100010011 m
1%
#200
0%
#205
b100 +
b100 [
b100 j
b111000 9
b111000 X
b111000 \
b100 $
b100 @
b100 E
b100 Y
b110101 :
b110101 W
b111000 8
b111000 V
b110100 "
b110100 ;
b110100 ^
b11 .
b11 C
b11 b
b11 3
b11 f
1%
#206
b11000100110010101110001001000000111100000110000001011000010000001111000001100000010110000100000001011010011000100110010 q
b11111110000000000000101011100011 r
#210
0%
#215
b111100 8
b111100 V
b111000 "
b111000 ;
b111000 ^
b100 3
b100 f
b101100 9
b101100 X
b101100 \
17
1I
b0 +
b0 [
b0 j
b1 A
b1 D
b1 L
b1 O
b0 $
b0 @
b0 E
b0 Y
b1 K
b1 N
b1 Q
1>
b10 <
b10 J
b10 R
b10 n
06
0?
b0 -
b0 B
b0 S
b0 .
b0 C
b0 b
b0 _
b0 `
b10101 a
b1100011 H
b1100011 P
1G
b101100 :
b101100 W
b11111111111111111111111111110100 =
b11111111111111111111111111110100 T
b11111111111111111111111111110100 o
b11111111111111111111111111110100 p
b11111110000000000000101011100011 &
b11111110000000000000101011100011 )
b11111110000000000000101011100011 m
1%
#220
0%
#225
b100000 9
b100000 X
b100000 \
b100000 :
b100000 W
b110000 8
b110000 V
b101100 "
b101100 ;
b101100 ^
1%
#226
b110001001100101011100010010000001111000001101010010110000100000011110000011000100111000001011000010000000111000 q
b1001000101000010001100011 r
#230
0%
#235
b100100 8
b100100 V
b100000 "
b100000 ;
b100000 ^
b101 +
b101 [
b101 j
07
0I
b101 $
b101 @
b101 E
b101 Y
b10000 -
b10000 B
b10000 S
b100100 9
b100100 X
b100100 \
b10101 .
b10101 C
b10101 b
b101 _
b10000 !
b10000 ,
b10000 U
b10000 c
b10010 `
b1000 a
0G
b101000 :
b101000 W
b1000 =
b1000 T
b1000 o
b1000 p
b1001000101000010001100011 &
b1001000101000010001100011 )
b1001000101000010001100011 m
1%
#240
0%
#245
b101000 9
b101000 X
b101000 \
b101100 :
b101100 W
b101000 8
b101000 V
b100100 "
b100100 ;
b100100 ^
1%
#246
b110000101100100011001000010000001111000001101010010110000100000011110000011010100101100001000000111100000110101 q
b10100101000001010010011 r
#250
0%
#255
b101100 9
b101100 X
b101100 \
b101100 8
b101100 V
b101000 "
b101000 ;
b101000 ^
b11010 +
b11010 [
b11010 j
b11010 $
b11010 @
b11010 E
b11010 Y
b0 A
b0 D
b0 L
b0 O
b101 -
b101 B
b101 S
1?
16
b0 K
b0 N
b0 Q
b0 <
b0 J
b0 R
b0 n
0>
b10101 !
b10101 ,
b10101 U
b10101 c
b101 `
b101 a
b10011 H
b10011 P
b101101 :
b101101 W
b101 =
b101 T
b101 o
b101 p
b10100101000001010010011 &
b10100101000001010010011 )
b10100101000001010010011 m
1%
#260
0%
#265
b11111 +
b11111 [
b11111 j
b110000 9
b110000 X
b110000 \
b11111 $
b11111 @
b11111 E
b11111 Y
b110001 :
b110001 W
b110000 8
b110000 V
b101100 "
b101100 ;
b101100 ^
b11010 .
b11010 C
b11010 b
b11010 !
b11010 ,
b11010 U
b11010 c
b11010 4
b11010 e
1%
#266
b110000101100100011001000110100100100000011110000011011000101100001000000111100000110110001011000010000000110001 q
b100110000001100010011 r
#270
0%
#275
b110100 9
b110100 X
b110100 \
b110100 8
b110100 V
b110000 "
b110000 ;
b110000 ^
b11111 4
b11111 e
b101 +
b101 [
b101 j
b101 $
b101 @
b101 E
b101 Y
b1 -
b1 B
b1 S
b100 .
b100 C
b100 b
b110 _
b0 !
b0 ,
b0 U
b0 c
b1 `
b110 a
b110001 :
b110001 W
b1 =
b1 T
b1 o
b1 p
b100110000001100010011 &
b100110000001100010011 )
b100110000001100010011 m
1%
#280
0%
#285
b110 +
b110 [
b110 j
b111000 9
b111000 X
b111000 \
b110 $
b110 @
b110 E
b110 Y
b110101 :
b110101 W
b111000 8
b111000 V
b110100 "
b110100 ;
b110100 ^
b101 .
b101 C
b101 b
b101 3
b101 f
1%
#286
b11000100110010101110001001000000111100000110000001011000010000001111000001100000010110000100000001011010011000100110010 q
b11111110000000000000101011100011 r
#290
0%
#295
b111100 8
b111100 V
b111000 "
b111000 ;
b111000 ^
b110 3
b110 f
b101100 9
b101100 X
b101100 \
17
1I
b0 +
b0 [
b0 j
b1 A
b1 D
b1 L
b1 O
b0 $
b0 @
b0 E
b0 Y
b1 K
b1 N
b1 Q
1>
b10 <
b10 J
b10 R
b10 n
06
0?
b0 -
b0 B
b0 S
b0 .
b0 C
b0 b
b0 _
b0 `
b10101 a
b1100011 H
b1100011 P
1G
b101100 :
b101100 W
b11111111111111111111111111110100 =
b11111111111111111111111111110100 T
b11111111111111111111111111110100 o
b11111111111111111111111111110100 p
b11111110000000000000101011100011 &
b11111110000000000000101011100011 )
b11111110000000000000101011100011 m
1%
#300
0%
#305
b100000 9
b100000 X
b100000 \
b100000 :
b100000 W
b110000 8
b110000 V
b101100 "
b101100 ;
b101100 ^
1%
#306
b110001001100101011100010010000001111000001101010010110000100000011110000011000100111000001011000010000000111000 q
b1001000101000010001100011 r
#310
0%
#315
b100100 8
b100100 V
b100000 "
b100000 ;
b100000 ^
b1111 +
b1111 [
b1111 j
07
0I
b1111 $
b1111 @
b1111 E
b1111 Y
b10000 -
b10000 B
b10000 S
b100100 9
b100100 X
b100100 \
b11111 .
b11111 C
b11111 b
b101 _
b10000 !
b10000 ,
b10000 U
b10000 c
b10010 `
b1000 a
0G
b101000 :
b101000 W
b1000 =
b1000 T
b1000 o
b1000 p
b1001000101000010001100011 &
b1001000101000010001100011 )
b1001000101000010001100011 m
1%
#320
0%
#325
b101000 9
b101000 X
b101000 \
b101100 :
b101100 W
b101000 8
b101000 V
b100100 "
b100100 ;
b100100 ^
1%
#326
b110000101100100011001000010000001111000001101010010110000100000011110000011010100101100001000000111100000110101 q
b10100101000001010010011 r
#330
0%
#335
b101100 9
b101100 X
b101100 \
b101100 8
b101100 V
b101000 "
b101000 ;
b101000 ^
b100100 +
b100100 [
b100100 j
b100100 $
b100100 @
b100100 E
b100100 Y
b0 A
b0 D
b0 L
b0 O
b101 -
b101 B
b101 S
1?
16
b0 K
b0 N
b0 Q
b0 <
b0 J
b0 R
b0 n
0>
b11111 !
b11111 ,
b11111 U
b11111 c
b101 `
b101 a
b10011 H
b10011 P
b101101 :
b101101 W
b101 =
b101 T
b101 o
b101 p
b10100101000001010010011 &
b10100101000001010010011 )
b10100101000001010010011 m
1%
#340
0%
#345
b101001 +
b101001 [
b101001 j
b110000 9
b110000 X
b110000 \
b101001 $
b101001 @
b101001 E
b101001 Y
b110001 :
b110001 W
b110000 8
b110000 V
b101100 "
b101100 ;
b101100 ^
b100100 .
b100100 C
b100100 b
b100100 !
b100100 ,
b100100 U
b100100 c
b100100 4
b100100 e
1%
#346
b110000101100100011001000110100100100000011110000011011000101100001000000111100000110110001011000010000000110001 q
b100110000001100010011 r
#350
0%
#355
b110100 9
b110100 X
b110100 \
b110100 8
b110100 V
b110000 "
b110000 ;
b110000 ^
b101001 4
b101001 e
b111 +
b111 [
b111 j
b111 $
b111 @
b111 E
b111 Y
b1 -
b1 B
b1 S
b110 .
b110 C
b110 b
b110 _
b0 !
b0 ,
b0 U
b0 c
b1 `
b110 a
b110001 :
b110001 W
b1 =
b1 T
b1 o
b1 p
b100110000001100010011 &
b100110000001100010011 )
b100110000001100010011 m
1%
#360
0%
#365
b1000 +
b1000 [
b1000 j
b111000 9
b111000 X
b111000 \
b1000 $
b1000 @
b1000 E
b1000 Y
b110101 :
b110101 W
b111000 8
b111000 V
b110100 "
b110100 ;
b110100 ^
b111 .
b111 C
b111 b
b111 3
b111 f
1%
#366
b11000100110010101110001001000000111100000110000001011000010000001111000001100000010110000100000001011010011000100110010 q
b11111110000000000000101011100011 r
#370
0%
#375
b111100 8
b111100 V
b111000 "
b111000 ;
b111000 ^
b1000 3
b1000 f
b101100 9
b101100 X
b101100 \
17
1I
b0 +
b0 [
b0 j
b1 A
b1 D
b1 L
b1 O
b0 $
b0 @
b0 E
b0 Y
b1 K
b1 N
b1 Q
1>
b10 <
b10 J
b10 R
b10 n
06
0?
b0 -
b0 B
b0 S
b0 .
b0 C
b0 b
b0 _
b0 `
b10101 a
b1100011 H
b1100011 P
1G
b101100 :
b101100 W
b11111111111111111111111111110100 =
b11111111111111111111111111110100 T
b11111111111111111111111111110100 o
b11111111111111111111111111110100 p
b11111110000000000000101011100011 &
b11111110000000000000101011100011 )
b11111110000000000000101011100011 m
1%
#380
0%
#385
b100000 9
b100000 X
b100000 \
b100000 :
b100000 W
b110000 8
b110000 V
b101100 "
b101100 ;
b101100 ^
1%
#386
b110001001100101011100010010000001111000001101010010110000100000011110000011000100111000001011000010000000111000 q
b1001000101000010001100011 r
#390
0%
#395
b100100 8
b100100 V
b100000 "
b100000 ;
b100000 ^
b11001 +
b11001 [
b11001 j
07
0I
b11001 $
b11001 @
b11001 E
b11001 Y
b10000 -
b10000 B
b10000 S
b100100 9
b100100 X
b100100 \
b101001 .
b101001 C
b101001 b
b101 _
b10000 !
b10000 ,
b10000 U
b10000 c
b10010 `
b1000 a
0G
b101000 :
b101000 W
b1000 =
b1000 T
b1000 o
b1000 p
b1001000101000010001100011 &
b1001000101000010001100011 )
b1001000101000010001100011 m
1%
#400
0%
#405
b101000 9
b101000 X
b101000 \
b101100 :
b101100 W
b101000 8
b101000 V
b100100 "
b100100 ;
b100100 ^
1%
#406
b110000101100100011001000010000001111000001101010010110000100000011110000011010100101100001000000111100000110101 q
b10100101000001010010011 r
#410
0%
#415
b101100 9
b101100 X
b101100 \
b101100 8
b101100 V
b101000 "
b101000 ;
b101000 ^
b101110 +
b101110 [
b101110 j
b101110 $
b101110 @
b101110 E
b101110 Y
b0 A
b0 D
b0 L
b0 O
b101 -
b101 B
b101 S
1?
16
b0 K
b0 N
b0 Q
b0 <
b0 J
b0 R
b0 n
0>
b101001 !
b101001 ,
b101001 U
b101001 c
b101 `
b101 a
b10011 H
b10011 P
b101101 :
b101101 W
b101 =
b101 T
b101 o
b101 p
b10100101000001010010011 &
b10100101000001010010011 )
b10100101000001010010011 m
1%
#420
0%
#425
b110011 +
b110011 [
b110011 j
b110000 9
b110000 X
b110000 \
b110011 $
b110011 @
b110011 E
b110011 Y
b110001 :
b110001 W
b110000 8
b110000 V
b101100 "
b101100 ;
b101100 ^
b101110 .
b101110 C
b101110 b
b101110 !
b101110 ,
b101110 U
b101110 c
b101110 4
b101110 e
1%
#426
b110000101100100011001000110100100100000011110000011011000101100001000000111100000110110001011000010000000110001 q
b100110000001100010011 r
#430
0%
#435
b110100 9
b110100 X
b110100 \
b110100 8
b110100 V
b110000 "
b110000 ;
b110000 ^
b110011 4
b110011 e
b1001 +
b1001 [
b1001 j
b1001 $
b1001 @
b1001 E
b1001 Y
b1 -
b1 B
b1 S
b1000 .
b1000 C
b1000 b
b110 _
b0 !
b0 ,
b0 U
b0 c
b1 `
b110 a
b110001 :
b110001 W
b1 =
b1 T
b1 o
b1 p
b100110000001100010011 &
b100110000001100010011 )
b100110000001100010011 m
1%
#440
0%
#445
b1010 +
b1010 [
b1010 j
b111000 9
b111000 X
b111000 \
b1010 $
b1010 @
b1010 E
b1010 Y
b110101 :
b110101 W
b111000 8
b111000 V
b110100 "
b110100 ;
b110100 ^
b1001 .
b1001 C
b1001 b
b1001 3
b1001 f
1%
#446
b11000100110010101110001001000000111100000110000001011000010000001111000001100000010110000100000001011010011000100110010 q
b11111110000000000000101011100011 r
#450
0%
#455
b111100 8
b111100 V
b111000 "
b111000 ;
b111000 ^
b1010 3
b1010 f
b101100 9
b101100 X
b101100 \
17
1I
b0 +
b0 [
b0 j
b1 A
b1 D
b1 L
b1 O
b0 $
b0 @
b0 E
b0 Y
b1 K
b1 N
b1 Q
1>
b10 <
b10 J
b10 R
b10 n
06
0?
b0 -
b0 B
b0 S
b0 .
b0 C
b0 b
b0 _
b0 `
b10101 a
b1100011 H
b1100011 P
1G
b101100 :
b101100 W
b11111111111111111111111111110100 =
b11111111111111111111111111110100 T
b11111111111111111111111111110100 o
b11111111111111111111111111110100 p
b11111110000000000000101011100011 &
b11111110000000000000101011100011 )
b11111110000000000000101011100011 m
1%
#460
0%
#465
b100000 9
b100000 X
b100000 \
b100000 :
b100000 W
b110000 8
b110000 V
b101100 "
b101100 ;
b101100 ^
1%
#466
b110001001100101011100010010000001111000001101010010110000100000011110000011000100111000001011000010000000111000 q
b1001000101000010001100011 r
#470
0%
#475
b100100 8
b100100 V
b100000 "
b100000 ;
b100000 ^
b100011 +
b100011 [
b100011 j
07
0I
b100011 $
b100011 @
b100011 E
b100011 Y
b10000 -
b10000 B
b10000 S
b100100 9
b100100 X
b100100 \
b110011 .
b110011 C
b110011 b
b101 _
b10000 !
b10000 ,
b10000 U
b10000 c
b10010 `
b1000 a
0G
b101000 :
b101000 W
b1000 =
b1000 T
b1000 o
b1000 p
b1001000101000010001100011 &
b1001000101000010001100011 )
b1001000101000010001100011 m
1%
#480
0%
#485
b101000 9
b101000 X
b101000 \
b101100 :
b101100 W
b101000 8
b101000 V
b100100 "
b100100 ;
b100100 ^
1%
#486
b110000101100100011001000010000001111000001101010010110000100000011110000011010100101100001000000111100000110101 q
b10100101000001010010011 r
#490
0%
#495
b101100 9
b101100 X
b101100 \
b101100 8
b101100 V
b101000 "
b101000 ;
b101000 ^
b111000 +
b111000 [
b111000 j
b111000 $
b111000 @
b111000 E
b111000 Y
b0 A
b0 D
b0 L
b0 O
b101 -
b101 B
b101 S
1?
16
b0 K
b0 N
b0 Q
b0 <
b0 J
b0 R
b0 n
0>
b110011 !
b110011 ,
b110011 U
b110011 c
b101 `
b101 a
b10011 H
b10011 P
b101101 :
b101101 W
b101 =
b101 T
b101 o
b101 p
b10100101000001010010011 &
b10100101000001010010011 )
b10100101000001010010011 m
1%
#500
0%
#505
b111101 +
b111101 [
b111101 j
b110000 9
b110000 X
b110000 \
b111101 $
b111101 @
b111101 E
b111101 Y
b110001 :
b110001 W
b110000 8
b110000 V
b101100 "
b101100 ;
b101100 ^
b111000 .
b111000 C
b111000 b
b111000 !
b111000 ,
b111000 U
b111000 c
b111000 4
b111000 e
1%
#506
b110000101100100011001000110100100100000011110000011011000101100001000000111100000110110001011000010000000110001 q
b100110000001100010011 r
#510
0%
#515
b110100 9
b110100 X
b110100 \
b110100 8
b110100 V
b110000 "
b110000 ;
b110000 ^
b111101 4
b111101 e
b1011 +
b1011 [
b1011 j
b1011 $
b1011 @
b1011 E
b1011 Y
b1 -
b1 B
b1 S
b1010 .
b1010 C
b1010 b
b110 _
b0 !
b0 ,
b0 U
b0 c
b1 `
b110 a
b110001 :
b110001 W
b1 =
b1 T
b1 o
b1 p
b100110000001100010011 &
b100110000001100010011 )
b100110000001100010011 m
1%
#520
0%
#525
b1100 +
b1100 [
b1100 j
b111000 9
b111000 X
b111000 \
b1100 $
b1100 @
b1100 E
b1100 Y
b110101 :
b110101 W
b111000 8
b111000 V
b110100 "
b110100 ;
b110100 ^
b1011 .
b1011 C
b1011 b
b1011 3
b1011 f
1%
#526
b11000100110010101110001001000000111100000110000001011000010000001111000001100000010110000100000001011010011000100110010 q
b11111110000000000000101011100011 r
#530
0%
#535
b111100 8
b111100 V
b111000 "
b111000 ;
b111000 ^
b1100 3
b1100 f
b101100 9
b101100 X
b101100 \
17
1I
b0 +
b0 [
b0 j
b1 A
b1 D
b1 L
b1 O
b0 $
b0 @
b0 E
b0 Y
b1 K
b1 N
b1 Q
1>
b10 <
b10 J
b10 R
b10 n
06
0?
b0 -
b0 B
b0 S
b0 .
b0 C
b0 b
b0 _
b0 `
b10101 a
b1100011 H
b1100011 P
1G
b101100 :
b101100 W
b11111111111111111111111111110100 =
b11111111111111111111111111110100 T
b11111111111111111111111111110100 o
b11111111111111111111111111110100 p
b11111110000000000000101011100011 &
b11111110000000000000101011100011 )
b11111110000000000000101011100011 m
1%
#540
0%
