src/modules/rv32i_tb.vcd
$date
	Sun Nov 24 15:28:18 2024
$end
$version
	Icarus Verilog
$end
$timescale
	1ps
$end
$scope module rv32i_tb $end
$var wire 32 ! writeData [31:0] $end
$var wire 32 " reg_x9 [31:0] $end
$var wire 32 # reg_x8 [31:0] $end
$var wire 32 $ reg_x7 [31:0] $end
$var wire 32 % reg_x6 [31:0] $end
$var wire 32 & reg_x5 [31:0] $end
$var wire 32 ' reg_x18 [31:0] $end
$var wire 32 ( pc [31:0] $end
$var wire 1 ) memWrite $end
$var wire 32 * aluResult [31:0] $end
$var reg 1 + clk $end
$var reg 1 , reset $end
$scope module uut $end
$var wire 1 + clk $end
$var wire 1 , reset $end
$var wire 32 - writeData [31:0] $end
$var wire 32 . reg_x9 [31:0] $end
$var wire 32 / reg_x8 [31:0] $end
$var wire 32 0 reg_x7 [31:0] $end
$var wire 32 1 reg_x6 [31:0] $end
$var wire 32 2 reg_x5 [31:0] $end
$var wire 32 3 reg_x18 [31:0] $end
$var wire 32 4 readData [31:0] $end
$var wire 32 5 pc [31:0] $end
$var wire 1 ) memWrite $end
$var wire 32 6 instr [31:0] $end
$var wire 32 7 aluResult [31:0] $end
$scope module dataMemory $end
$var wire 5 8 addressDM [4:0] $end
$var wire 1 + clk $end
$var wire 32 9 rd [31:0] $end
$var wire 1 ) we $end
$var wire 32 : wd [31:0] $end
$var integer 32 ; i [31:0] $end
$upscope $end
$scope module dp $end
$var wire 1 + clk $end
$var wire 32 < readData [31:0] $end
$var wire 1 , reset $end
$var wire 32 = writeDataReg [31:0] $end
$var wire 32 > writeData [31:0] $end
$var wire 32 ? srcB [31:0] $end
$var wire 32 @ srcA [31:0] $end
$var wire 1 A resSrc $end
$var wire 32 B reg_x9 [31:0] $end
$var wire 32 C reg_x8 [31:0] $end
$var wire 32 D reg_x7 [31:0] $end
$var wire 32 E reg_x6 [31:0] $end
$var wire 32 F reg_x5 [31:0] $end
$var wire 32 G reg_x18 [31:0] $end
$var wire 1 H regWrite $end
$var wire 1 I pcSrc $end
$var wire 32 J pcPlus4 [31:0] $end
$var wire 32 K pcNext [31:0] $end
$var wire 32 L pcBranch [31:0] $end
$var wire 32 M pc [31:0] $end
$var wire 1 ) memWrite $end
$var wire 32 N instr [31:0] $end
$var wire 2 O immSrc [1:0] $end
$var wire 32 P immExt [31:0] $end
$var wire 1 Q branch $end
$var wire 1 R aluSrc $end
$var wire 32 S aluResult [31:0] $end
$var wire 3 T aluControl [2:0] $end
$scope module alu $end
$var wire 32 U srcB [31:0] $end
$var wire 32 V srcA [31:0] $end
$var wire 3 W ALUControl [2:0] $end
$var reg 32 X result [31:0] $end
$upscope $end
$scope module controlUnit $end
$var wire 3 Y func3 [2:0] $end
$var wire 1 Z func7 $end
$var wire 7 [ op [6:0] $end
$var wire 1 I pcSrc $end
$var wire 1 , reset $end
$var wire 1 \ zero $end
$var wire 1 A resSrc $end
$var wire 1 H regWrite $end
$var wire 1 ) memWrite $end
$var wire 2 ] immSrc [1:0] $end
$var wire 1 Q branch $end
$var wire 1 R aluSrc $end
$var wire 2 ^ aluOp [1:0] $end
$var wire 3 _ aluControl [2:0] $end
$scope module aluDecoder $end
$var wire 3 ` func3 [2:0] $end
$var wire 1 Z func7 $end
$var wire 2 a aluOp [1:0] $end
$var reg 3 b aluControl [2:0] $end
$upscope $end
$scope module mainDecoder $end
$var wire 7 c op [6:0] $end
$var wire 1 , reset $end
$var reg 2 d aluOp [1:0] $end
$var reg 1 R aluSrc $end
$var reg 1 Q branch $end
$var reg 2 e immSrc [1:0] $end
$var reg 1 ) memWrite $end
$var reg 1 H regWrite $end
$var reg 1 A resSrc $end
$upscope $end
$upscope $end
$scope module muxALUSrc $end
$var wire 1 R sel $end
$var wire 32 f salMux [31:0] $end
$var wire 32 g e2 [31:0] $end
$var wire 32 h e1 [31:0] $end
$upscope $end
$scope module muxPCSrc $end
$var wire 32 i e1 [31:0] $end
$var wire 32 j e2 [31:0] $end
$var wire 1 I sel $end
$var wire 32 k salMux [31:0] $end
$upscope $end
$scope module muxResSrc $end
$var wire 32 l e1 [31:0] $end
$var wire 32 m e2 [31:0] $end
$var wire 1 A sel $end
$var wire 32 n salMux [31:0] $end
$upscope $end
$scope module pcReg $end
$var wire 1 + clk $end
$var wire 32 o pcNext [31:0] $end
$var wire 1 , reset $end
$var reg 32 p pc [31:0] $end
$upscope $end
$scope module regFile $end
$var wire 5 q a1 [4:0] $end
$var wire 5 r a2 [4:0] $end
$var wire 5 s a3 [4:0] $end
$var wire 1 + clk $end
$var wire 32 t rd1 [31:0] $end
$var wire 32 u rd2 [31:0] $end
$var wire 32 v reg_x18 [31:0] $end
$var wire 32 w reg_x5 [31:0] $end
$var wire 32 x reg_x6 [31:0] $end
$var wire 32 y reg_x7 [31:0] $end
$var wire 32 z reg_x8 [31:0] $end
$var wire 32 { reg_x9 [31:0] $end
$var wire 32 | wd3 [31:0] $end
$var wire 1 H we $end
$var integer 32 } i [31:0] $end
$upscope $end
$scope module signExt $end
$var wire 2 ~ src [1:0] $end
$var wire 32 !" instr [31:0] $end
$var wire 32 "" immExt [31:0] $end
$var reg 32 #" immaux [31:0] $end
$upscope $end
$upscope $end
$scope module instructionMemory $end
$var wire 5 $" address [4:0] $end
$var wire 1 , reset $end
$var reg 32 %" data [31:0] $end
$upscope $end
$upscope $end
$scope task display_control_signals $end
$upscope $end
$scope task display_instruction $end
$upscope $end
$scope task display_key_registers $end
$upscope $end
$upscope $end
$enddefinitions $end
#0
$dumpvars
b0 %"
b0 $"
b0 #"
b0 ""
b0 !"
b0 ~
b100000 }
b0 |
b0 {
b0 z
b0 y
b0 x
b0 w
b0 v
b0 u
b0 t
b0 s
b0 r
b0 q
b0 p
b100 o
b0 n
b0 m
b0 l
b100 k
b0 j
b100 i
b0 h
b0 g
b0 f
b0 e
b0 d
b0 c
b0 b
b0 a
b0 `
b0 _
b0 ^
b0 ]
1\
b0 [
0Z
b0 Y
b0 X
b0 W
b0 V
b0 U
b0 T
b0 S
0R
0Q
b0 P
b0 O
b0 N
b0 M
b0 L
b100 K
b100 J
0I
0H
b0 G
b0 F
b0 E
b0 D
b0 C
b0 B
0A
b0 @
b0 ?
b0 >
b0 =
b0 <
b100000 ;
b0 :
b0 9
b0 8
b0 7
b0 6
b0 5
b0 4
b0 3
b0 2
b0 1
b0 0
b0 /
b0 .
b0 -
1,
0+
b0 *
0)
b0 (
b0 '
b0 &
b0 %
b0 $
b0 #
b0 "
b0 !
$end
#5
1+
#10
0+
#15
1+
#20
b11 =
b11 n
b11 |
0\
b11 *
b11 7
b11 S
b11 X
b11 l
b11 ?
b11 U
b11 f
1R
1H
b10011 [
b10011 c
b1000 s
b11 r
b11 L
b11 j
b11 P
b11 g
b11 ""
b11 #"
b1100000000010000010011 6
b1100000000010000010011 N
b1100000000010000010011 !"
b1100000000010000010011 %"
0+
0,
#25
b1 =
b1 n
b1 |
b1 *
b1 7
b1 S
b1 X
b1 l
b1 ?
b1 U
b1 f
b1001 s
b1 r
b1 P
b1 g
b1 ""
b1 #"
b100000000010010010011 6
b100000000010010010011 N
b100000000010010010011 !"
b100000000010010010011 %"
b1 $"
b1000 K
b1000 k
b1000 o
b11 #
b11 /
b11 C
b11 z
b101 L
b101 j
b1000 J
b1000 i
b100 (
b100 5
b100 M
b100 p
1+
#30
0+
#35
b10000 =
b10000 n
b10000 |
b100 8
b10000 *
b10000 7
b10000 S
b10000 X
b10000 l
b10000 ?
b10000 U
b10000 f
b10010 s
b10000 r
b10000 P
b10000 g
b10000 ""
b10000 #"
b1000000000000100100010011 6
b1000000000000100100010011 N
b1000000000000100100010011 !"
b1000000000000100100010011 %"
b10 $"
b1100 K
b1100 k
b1100 o
b1 "
b1 .
b1 B
b1 {
b11000 L
b11000 j
b1100 J
b1100 i
b1000 (
b1000 5
b1000 M
b1000 p
1+
#40
0+
#45
b11 =
b11 n
b11 |
b0 8
b11 T
b11 W
b11 _
b11 b
b10 ^
b10 a
b10 d
0R
b11 *
b11 7
b11 S
b11 X
b11 l
b1 ?
b1 U
b1 f
b110 Y
b110 `
b110011 [
b110011 c
b101 s
b1 !
b1 -
b1 :
b1 >
b1 h
b1 u
b1001 r
b11 @
b11 V
b11 t
b1000 q
b1001 P
b1001 g
b1001 ""
b1001 #"
b100101000110001010110011 6
b100101000110001010110011 N
b100101000110001010110011 !"
b100101000110001010110011 %"
b11 $"
b10000 K
b10000 k
b10000 o
b10000 '
b10000 3
b10000 G
b10000 v
b10101 L
b10101 j
b10000 J
b10000 i
b1100 (
b1100 5
b1100 M
b1100 p
1+
#50
0+
#55
b1 =
b1 n
b1 |
b1 *
b1 7
b1 S
b1 X
b1 l
b10 T
b10 W
b10 _
b10 b
b111 Y
b111 `
b110 s
b100101000111001100110011 6
b100101000111001100110011 N
b100101000111001100110011 !"
b100101000111001100110011 %"
b100 $"
b10100 K
b10100 k
b10100 o
b11 &
b11 2
b11 F
b11 w
b11001 L
b11001 j
b10100 J
b10100 i
b10000 (
b10000 5
b10000 M
b10000 p
1+
#60
0+
#65
b100 =
b100 n
b100 |
b1 8
b100 *
b100 7
b100 S
b100 X
b100 l
b0 T
b0 W
b0 _
b0 b
b0 Y
b0 `
b111 s
b100101000000001110110011 6
b100101000000001110110011 N
b100101000000001110110011 !"
b100101000000001110110011 %"
b101 $"
b11000 K
b11000 k
b11000 o
b1 %
b1 1
b1 E
b1 x
b11101 L
b11101 j
b11000 J
b11000 i
b10100 (
b10100 5
b10100 M
b10100 p
1+
#70
0+
#75
b10 =
b10 n
b10 |
b0 8
b10 *
b10 7
b10 S
b10 X
b10 l
b1 T
b1 W
b1 _
b1 b
1Z
b11100 s
b10000001001 P
b10000001001 g
b10000001001 ""
b10000001001 #"
b1000000100101000000111000110011 6
b1000000100101000000111000110011 N
b1000000100101000000111000110011 !"
b1000000100101000000111000110011 %"
b110 $"
b11100 K
b11100 k
b11100 o
b100 $
b100 0
b100 D
b100 y
b10000100001 L
b10000100001 j
b11100 J
b11100 i
b11000 (
b11000 5
b11000 M
b11000 p
1+
#80
0+
#85
b11111 8
b11111111111111111111111111111110 =
b11111111111111111111111111111110 n
b11111111111111111111111111111110 |
b11 ?
b11 U
b11 f
0\
b11111111111111111111111111111110 *
b11111111111111111111111111111110 7
b11111111111111111111111111111110 S
b11111111111111111111111111111110 X
b11111111111111111111111111111110 l
b11101 s
b11 !
b11 -
b11 :
b11 >
b11 h
b11 u
b1000 r
b1 @
b1 V
b1 t
b1001 q
b10000001000 P
b10000001000 g
b10000001000 ""
b10000001000 #"
b1000000100001001000111010110011 6
b1000000100001001000111010110011 N
b1000000100001001000111010110011 !"
b1000000100001001000111010110011 %"
b111 $"
b100000 K
b100000 k
b100000 o
b10000100100 L
b10000100100 j
b100000 J
b100000 i
b11100 (
b11100 5
b11100 M
b11100 p
1+
#90
0+
#95
b0 =
b0 n
b0 |
b0 8
b101 T
b101 W
b101 _
b101 b
b1 ?
b1 U
b1 f
1\
b0 *
b0 7
b0 S
b0 X
b0 l
0Z
b10 Y
b10 `
b11110 s
b1 !
b1 -
b1 :
b1 >
b1 h
b1 u
b1001 r
b11 @
b11 V
b11 t
b1000 q
b1001 P
b1001 g
b1001 ""
b1001 #"
b100101000010111100110011 6
b100101000010111100110011 N
b100101000010111100110011 !"
b100101000010111100110011 %"
b1000 $"
b100100 K
b100100 k
b100100 o
b101001 L
b101001 j
b100100 J
b100100 i
b100000 (
b100000 5
b100000 M
b100000 p
1+
#100
0+
#105
b1 =
b1 n
b1 |
0\
b1 *
b1 7
b1 S
b1 X
b1 l
b11 ?
b11 U
b11 f
b11111 s
b11 !
b11 -
b11 :
b11 >
b11 h
b11 u
b1000 r
b1 @
b1 V
b1 t
b1001 q
b1000 P
b1000 g
b1000 ""
b1000 #"
b100001001010111110110011 6
b100001001010111110110011 N
b100001001010111110110011 !"
b100001001010111110110011 %"
b1001 $"
b101000 K
b101000 k
b101000 o
b101100 L
b101100 j
b101000 J
b101000 i
b100100 (
b100100 5
b100100 M
b100100 p
1+
#110
0+
#115
b11111111111111111111111111111110 ?
b11111111111111111111111111111110 U
b11111111111111111111111111111110 f
b11111111111111111111111111111110 !
b11111111111111111111111111111110 -
b11111111111111111111111111111110 :
b11111111111111111111111111111110 >
b11111111111111111111111111111110 h
b11111111111111111111111111111110 u
b11101 r
b11101 P
b11101 g
b11101 ""
b11101 #"
b1110101001010111110110011 6
b1110101001010111110110011 N
b1110101001010111110110011 !"
b1110101001010111110110011 %"
b1010 $"
b101100 K
b101100 k
b101100 o
b1000101 L
b1000101 j
b101100 J
b101100 i
b101000 (
b101000 5
b101000 M
b101000 p
1+
#120
0+
#125
b1 =
b1 n
b1 |
0\
b1 *
b1 7
b1 S
b1 X
b1 l
b0 T
b0 W
b0 _
b0 b
b0 ^
b0 a
b0 d
1R
b1 ?
b1 U
b1 f
b0 Y
b0 `
b10011 [
b10011 c
b101 s
b0 !
b0 -
b0 :
b0 >
b0 h
b0 u
b1 r
b0 @
b0 V
b0 t
b0 q
b1 P
b1 g
b1 ""
b1 #"
b100000000001010010011 6
b100000000001010010011 N
b100000000001010010011 !"
b100000000001010010011 %"
b1011 $"
b110000 K
b110000 k
b110000 o
b101101 L
b101101 j
b110000 J
b110000 i
b101100 (
b101100 5
b101100 M
b101100 p
1+
#130
0+
#135
b0 =
b0 n
b0 |
1\
b0 *
b0 7
b0 S
b0 X
b0 l
b0 ?
b0 U
b0 f
b110 s
b0 r
b0 P
b0 g
b0 ""
b0 #"
b1100010011 6
b1100010011 N
b1100010011 !"
b1100010011 %"
b1100 $"
b110100 K
b110100 k
b110100 o
b1 &
b1 2
b1 F
b1 w
b110000 L
b110000 j
b110100 J
b110100 i
b110000 (
b110000 5
b110000 M
b110000 p
1+
#140
0+
#145
b1 T
b1 W
b1 _
b1 b
b11111111111111111111111111110001 =
b11111111111111111111111111110001 n
b11111111111111111111111111110001 |
b11100 8
b1 ^
b1 a
b1 d
1Q
0R
b10 O
b10 ]
b10 e
b10 ~
0H
0\
b11111111111111111111111111110001 *
b11111111111111111111111111110001 7
b11111111111111111111111111110001 S
b11111111111111111111111111110001 X
b11111111111111111111111111110001 l
b10000 ?
b10000 U
b10000 f
b1100011 [
b1100011 c
b10000 s
b10000 !
b10000 -
b10000 :
b10000 >
b10000 h
b10000 u
b10010 r
b1 @
b1 V
b1 t
b101 q
b10000 P
b10000 g
b10000 ""
b10000 #"
b1001000101000100001100011 6
b1001000101000100001100011 N
b1001000101000100001100011 !"
b1001000101000100001100011 %"
b1101 $"
b111000 K
b111000 k
b111000 o
b0 %
b0 1
b0 E
b0 x
b1000100 L
b1000100 j
b111000 J
b111000 i
b110100 (
b110100 5
b110100 M
b110100 p
1+
#150
0+
#155
b10 =
b10 n
b10 |
b0 8
b0 T
b0 W
b0 _
b0 b
0\
b10 *
b10 7
b10 S
b10 X
b10 l
b10 ^
b10 a
b10 d
0Q
b0 O
b0 ]
b0 e
b0 ~
1H
b1 ?
b1 U
b1 f
b110011 [
b110011 c
b101 s
b1 !
b1 -
b1 :
b1 >
b1 h
b1 u
b101 r
b101 P
b101 g
b101 ""
b101 #"
b10100101000001010110011 6
b10100101000001010110011 N
b10100101000001010110011 !"
b10100101000001010110011 %"
b1110 $"
b111100 K
b111100 k
b111100 o
b111101 L
b111101 j
b111100 J
b111100 i
b111000 (
b111000 5
b111000 M
b111000 p
1+
#160
0+
#165
0\
b0 ^
b0 a
b0 d
1R
b10011 [
b10011 c
b110 s
b1 r
b110 q
b1 P
b1 g
b1 ""
b1 #"
b100110000001100010011 6
b100110000001100010011 N
b100110000001100010011 !"
b100110000001100010011 %"
b1 =
b1 n
b1 |
b0 8
b1111 $"
b1 *
b1 7
b1 S
b1 X
b1 l
b1 ?
b1 U
b1 f
b1000000 K
b1000000 k
b1000000 o
b0 @
b0 V
b0 t
b0 !
b0 -
b0 :
b0 >
b0 h
b0 u
b10 &
b10 2
b10 F
b10 w
b111101 L
b111101 j
b1000000 J
b1000000 i
b111100 (
b111100 5
b111100 M
b111100 p
1+
#170
0+
#175
b0 8
1I
1Q
0R
b11 O
b11 ]
b11 e
b11 ~
b0 ?
b0 U
b0 f
1Z
b111 Y
b111 `
b1101111 [
b1101111 c
b0 s
b10101 r
b11111 q
b11111111111111111111111111110100 P
b11111111111111111111111111110100 g
b11111111111111111111111111110100 ""
b11111111111111111111111111110100 #"
b11111111010111111111000001101111 6
b11111111010111111111000001101111 N
b11111111010111111111000001101111 !"
b11111111010111111111000001101111 %"
b1 =
b1 n
b1 |
b10000 $"
b1 *
b1 7
b1 S
b1 X
b1 l
b110100 K
b110100 k
b110100 o
b1 @
b1 V
b1 t
b1 %
b1 1
b1 E
b1 x
b110100 L
b110100 j
b1000100 J
b1000100 i
b1000000 (
b1000000 5
b1000000 M
b1000000 p
1+
#180
0+
#185
b11100 8
b11111111111111111111111111110010 =
b11111111111111111111111111110010 n
b11111111111111111111111111110010 |
b1 T
b1 W
b1 _
b1 b
0I
b1 ^
b1 a
b1 d
b10 O
b10 ]
b10 e
b10 ~
0H
b10000 ?
b10000 U
b10000 f
b11111111111111111111111111110010 *
b11111111111111111111111111110010 7
b11111111111111111111111111110010 S
b11111111111111111111111111110010 X
b11111111111111111111111111110010 l
0Z
b0 Y
b0 `
b1100011 [
b1100011 c
b10000 s
b10000 !
b10000 -
b10000 :
b10000 >
b10000 h
b10000 u
b10010 r
b10 @
b10 V
b10 t
b101 q
b10000 P
b10000 g
b10000 ""
b10000 #"
b1001000101000100001100011 6
b1001000101000100001100011 N
b1001000101000100001100011 !"
b1001000101000100001100011 %"
b1101 $"
b111000 K
b111000 k
b111000 o
b1000100 L
b1000100 j
b111000 J
b111000 i
b110100 (
b110100 5
b110100 M
b110100 p
1+
#190
0+
#195
b100 =
b100 n
b100 |
b1 8
b0 T
b0 W
b0 _
b0 b
0\
b100 *
b100 7
b100 S
b100 X
b100 l
b10 ^
b10 a
b10 d
0Q
b0 O
b0 ]
b0 e
b0 ~
1H
b10 ?
b10 U
b10 f
b110011 [
b110011 c
b101 s
b10 !
b10 -
b10 :
b10 >
b10 h
b10 u
b101 r
b101 P
b101 g
b101 ""
b101 #"
b10100101000001010110011 6
b10100101000001010110011 N
b10100101000001010110011 !"
b10100101000001010110011 %"
b1110 $"
b111100 K
b111100 k
b111100 o
b111101 L
b111101 j
b111100 J
b111100 i
b111000 (
b111000 5
b111000 M
b111000 p
1+
#200
0+
#205
b0 ^
b0 a
b0 d
1R
b10011 [
b10011 c
b110 s
b1 r
b110 q
b1 P
b1 g
b1 ""
b1 #"
b100110000001100010011 6
b100110000001100010011 N
b100110000001100010011 !"
b100110000001100010011 %"
b10 =
b10 n
b10 |
b0 8
b1111 $"
b10 *
b10 7
b10 S
b10 X
b10 l
b1 ?
b1 U
b1 f
b1000000 K
b1000000 k
b1000000 o
b1 @
b1 V
b1 t
b0 !
b0 -
b0 :
b0 >
b0 h
b0 u
b100 &
b100 2
b100 F
b100 w
b111101 L
b111101 j
b1000000 J
b1000000 i
b111100 (
b111100 5
b111100 M
b111100 p
1+
#210
0+
#215
b0 8
1I
1Q
0R
b11 O
b11 ]
b11 e
b11 ~
b0 ?
b0 U
b0 f
1Z
b111 Y
b111 `
b1101111 [
b1101111 c
b0 s
b10101 r
b11111 q
b11111111111111111111111111110100 P
b11111111111111111111111111110100 g
b11111111111111111111111111110100 ""
b11111111111111111111111111110100 #"
b11111111010111111111000001101111 6
b11111111010111111111000001101111 N
b11111111010111111111000001101111 !"
b11111111010111111111000001101111 %"
b1 =
b1 n
b1 |
b10000 $"
b1 *
b1 7
b1 S
b1 X
b1 l
b110100 K
b110100 k
b110100 o
b1 @
b1 V
b1 t
b10 %
b10 1
b10 E
b10 x
b110100 L
b110100 j
b1000100 J
b1000100 i
b1000000 (
b1000000 5
b1000000 M
b1000000 p
1+
#220
0+
#225
b11111111111111111111111111110100 =
b11111111111111111111111111110100 n
b11111111111111111111111111110100 |
b11101 8
b1 T
b1 W
b1 _
b1 b
0I
b1 ^
b1 a
b1 d
b10 O
b10 ]
b10 e
b10 ~
0H
b10000 ?
b10000 U
b10000 f
b11111111111111111111111111110100 *
b11111111111111111111111111110100 7
b11111111111111111111111111110100 S
b11111111111111111111111111110100 X
b11111111111111111111111111110100 l
0Z
b0 Y
b0 `
b1100011 [
b1100011 c
b10000 s
b10000 !
b10000 -
b10000 :
b10000 >
b10000 h
b10000 u
b10010 r
b100 @
b100 V
b100 t
b101 q
b10000 P
b10000 g
b10000 ""
b10000 #"
b1001000101000100001100011 6
b1001000101000100001100011 N
b1001000101000100001100011 !"
b1001000101000100001100011 %"
b1101 $"
b111000 K
b111000 k
b111000 o
b1000100 L
b1000100 j
b111000 J
b111000 i
b110100 (
b110100 5
b110100 M
b110100 p
1+
#230
0+
#235
b1000 =
b1000 n
b1000 |
b10 8
b0 T
b0 W
b0 _
b0 b
0\
b1000 *
b1000 7
b1000 S
b1000 X
b1000 l
b10 ^
b10 a
b10 d
0Q
b0 O
b0 ]
b0 e
b0 ~
1H
b100 ?
b100 U
b100 f
b110011 [
b110011 c
b101 s
b100 !
b100 -
b100 :
b100 >
b100 h
b100 u
b101 r
b101 P
b101 g
b101 ""
b101 #"
b10100101000001010110011 6
b10100101000001010110011 N
b10100101000001010110011 !"
b10100101000001010110011 %"
b1110 $"
b111100 K
b111100 k
b111100 o
b111101 L
b111101 j
b111100 J
b111100 i
b111000 (
b111000 5
b111000 M
b111000 p
1+
#240
0+
#245
b0 ^
b0 a
b0 d
1R
b10011 [
b10011 c
b110 s
b1 r
b110 q
b1 P
b1 g
b1 ""
b1 #"
b100110000001100010011 6
b100110000001100010011 N
b100110000001100010011 !"
b100110000001100010011 %"
b11 =
b11 n
b11 |
b0 8
b1111 $"
b11 *
b11 7
b11 S
b11 X
b11 l
b1 ?
b1 U
b1 f
b1000000 K
b1000000 k
b1000000 o
b10 @
b10 V
b10 t
b0 !
b0 -
b0 :
b0 >
b0 h
b0 u
b1000 &
b1000 2
b1000 F
b1000 w
b111101 L
b111101 j
b1000000 J
b1000000 i
b111100 (
b111100 5
b111100 M
b111100 p
1+
#250
0+
#255
1I
1Q
0R
b11 O
b11 ]
b11 e
b11 ~
b0 ?
b0 U
b0 f
1Z
b111 Y
b111 `
b1101111 [
b1101111 c
b0 s
b10101 r
b11111 q
b11111111111111111111111111110100 P
b11111111111111111111111111110100 g
b11111111111111111111111111110100 ""
b11111111111111111111111111110100 #"
b11111111010111111111000001101111 6
b11111111010111111111000001101111 N
b11111111010111111111000001101111 !"
b11111111010111111111000001101111 %"
b1 =
b1 n
b1 |
b0 8
b10000 $"
b1 *
b1 7
b1 S
b1 X
b1 l
b110100 K
b110100 k
b110100 o
b1 @
b1 V
b1 t
b11 %
b11 1
b11 E
b11 x
b110100 L
b110100 j
b1000100 J
b1000100 i
b1000000 (
b1000000 5
b1000000 M
b1000000 p
1+
#260
0+
#265
b11111111111111111111111111111000 =
b11111111111111111111111111111000 n
b11111111111111111111111111111000 |
b11110 8
b1 T
b1 W
b1 _
b1 b
0I
b1 ^
b1 a
b1 d
b10 O
b10 ]
b10 e
b10 ~
0H
b10000 ?
b10000 U
b10000 f
b11111111111111111111111111111000 *
b11111111111111111111111111111000 7
b11111111111111111111111111111000 S
b11111111111111111111111111111000 X
b11111111111111111111111111111000 l
0Z
b0 Y
b0 `
b1100011 [
b1100011 c
b10000 s
b10000 !
b10000 -
b10000 :
b10000 >
b10000 h
b10000 u
b10010 r
b1000 @
b1000 V
b1000 t
b101 q
b10000 P
b10000 g
b10000 ""
b10000 #"
b1001000101000100001100011 6
b1001000101000100001100011 N
b1001000101000100001100011 !"
b1001000101000100001100011 %"
b1101 $"
b111000 K
b111000 k
b111000 o
b1000100 L
b1000100 j
b111000 J
b111000 i
b110100 (
b110100 5
b110100 M
b110100 p
1+
#270
0+
#275
b10000 =
b10000 n
b10000 |
b100 8
b0 T
b0 W
b0 _
b0 b
0\
b10000 *
b10000 7
b10000 S
b10000 X
b10000 l
b10 ^
b10 a
b10 d
0Q
b0 O
b0 ]
b0 e
b0 ~
1H
b1000 ?
b1000 U
b1000 f
b110011 [
b110011 c
b101 s
b1000 !
b1000 -
b1000 :
b1000 >
b1000 h
b1000 u
b101 r
b101 P
b101 g
b101 ""
b101 #"
b10100101000001010110011 6
b10100101000001010110011 N
b10100101000001010110011 !"
b10100101000001010110011 %"
b1110 $"
b111100 K
b111100 k
b111100 o
b111101 L
b111101 j
b111100 J
b111100 i
b111000 (
b111000 5
b111000 M
b111000 p
1+
#280
0+
#285
b0 ^
b0 a
b0 d
1R
b10011 [
b10011 c
b110 s
b1 r
b110 q
b1 P
b1 g
b1 ""
b1 #"
b100110000001100010011 6
b100110000001100010011 N
b100110000001100010011 !"
b100110000001100010011 %"
b100 =
b100 n
b100 |
b1 8
b1111 $"
b100 *
b100 7
b100 S
b100 X
b100 l
b1 ?
b1 U
b1 f
b1000000 K
b1000000 k
b1000000 o
b11 @
b11 V
b11 t
b0 !
b0 -
b0 :
b0 >
b0 h
b0 u
b10000 &
b10000 2
b10000 F
b10000 w
b111101 L
b111101 j
b1000000 J
b1000000 i
b111100 (
b111100 5
b111100 M
b111100 p
1+
#290
0+
#295
b0 8
1I
1Q
0R
b11 O
b11 ]
b11 e
b11 ~
b0 ?
b0 U
b0 f
1Z
b111 Y
b111 `
b1101111 [
b1101111 c
b0 s
b10101 r
b11111 q
b11111111111111111111111111110100 P
b11111111111111111111111111110100 g
b11111111111111111111111111110100 ""
b11111111111111111111111111110100 #"
b11111111010111111111000001101111 6
b11111111010111111111000001101111 N
b11111111010111111111000001101111 !"
b11111111010111111111000001101111 %"
b1 =
b1 n
b1 |
b10000 $"
b1 *
b1 7
b1 S
b1 X
b1 l
b110100 K
b110100 k
b110100 o
b1 @
b1 V
b1 t
b100 %
b100 1
b100 E
b100 x
b110100 L
b110100 j
b1000100 J
b1000100 i
b1000000 (
b1000000 5
b1000000 M
b1000000 p
1+
#300
0+
#305
1\
b0 =
b0 n
b0 |
b0 8
b1 T
b1 W
b1 _
b1 b
1I
b1 ^
b1 a
b1 d
b10 O
b10 ]
b10 e
b10 ~
0H
b10000 ?
b10000 U
b10000 f
b0 *
b0 7
b0 S
b0 X
b0 l
0Z
b0 Y
b0 `
b1100011 [
b1100011 c
b10000 s
b10000 !
b10000 -
b10000 :
b10000 >
b10000 h
b10000 u
b10010 r
b10000 @
b10000 V
b10000 t
b101 q
b10000 P
b10000 g
b10000 ""
b10000 #"
b1001000101000100001100011 6
b1001000101000100001100011 N
b1001000101000100001100011 !"
b1001000101000100001100011 %"
b1101 $"
b1000100 K
b1000100 k
b1000100 o
b1000100 L
b1000100 j
b111000 J
b111000 i
b110100 (
b110100 5
b110100 M
b110100 p
1+
#310
0+
#315
0I
b0 T
b0 W
b0 _
b0 b
b0 =
b0 n
b0 |
b0 8
b10 ^
b10 a
b10 d
0Q
b0 O
b0 ]
b0 e
b0 ~
1H
b0 ?
b0 U
b0 f
1\
b0 *
b0 7
b0 S
b0 X
b0 l
b110011 [
b110011 c
b1001 s
b0 !
b0 -
b0 :
b0 >
b0 h
b0 u
b0 r
b0 @
b0 V
b0 t
b0 q
b0 P
b0 g
b0 ""
b0 #"
b10010110011 6
b10010110011 N
b10010110011 !"
b10010110011 %"
b10001 $"
b1001000 K
b1001000 k
b1001000 o
b1000100 L
b1000100 j
b1001000 J
b1001000 i
b1000100 (
b1000100 5
b1000100 M
b1000100 p
1+
#320
0+
#325
b0 ^
b0 a
b0 d
1R
b10011 [
b10011 c
b101 s
b1010010011 6
b1010010011 N
b1010010011 !"
b1010010011 %"
b10010 $"
b1001100 K
b1001100 k
b1001100 o
b0 "
b0 .
b0 B
b0 {
b1001000 L
b1001000 j
b1001100 J
b1001100 i
b1001000 (
b1001000 5
b1001000 M
b1001000 p
1+
#330
0+
#335
b1010 =
b1010 n
b1010 |
b10 8
0\
b1010 *
b1010 7
b1010 S
b1010 X
b1010 l
b1010 ?
b1010 U
b1010 f
b110 s
b1010 r
b1010 P
b1010 g
b1010 ""
b1010 #"
b101000000000001100010011 6
b101000000000001100010011 N
b101000000000001100010011 !"
b101000000000001100010011 %"
b10011 $"
b1010000 K
b1010000 k
b1010000 o
b0 &
b0 2
b0 F
b0 w
b1010110 L
b1010110 j
b1010000 J
b1010000 i
b1001100 (
b1001100 5
b1001100 M
b1001100 p
1+
#340
0+
#345
b11111111111111111111111111110110 =
b11111111111111111111111111110110 n
b11111111111111111111111111110110 |
b11101 8
b1 T
b1 W
b1 _
b1 b
b11111111111111111111111111110110 *
b11111111111111111111111111110110 7
b11111111111111111111111111110110 S
b11111111111111111111111111110110 X
b11111111111111111111111111110110 l
b1 ^
b1 a
b1 d
1Q
0R
b10 O
b10 ]
b10 e
b10 ~
0H
b1010 ?
b1010 U
b1010 f
b1100011 [
b1100011 c
b10000 s
b1010 !
b1010 -
b1010 :
b1010 >
b1010 h
b1010 u
b110 r
b101 q
b10000 P
b10000 g
b10000 ""
b10000 #"
b11000101000100001100011 6
b11000101000100001100011 N
b11000101000100001100011 !"
b11000101000100001100011 %"
b10100 $"
b1010100 K
b1010100 k
b1010100 o
b1010 %
b1010 1
b1010 E
b1010 x
b1100000 L
b1100000 j
b1010100 J
b1010100 i
b1010000 (
b1010000 5
b1010000 M
b1010000 p
1+
#350
0+
